module gitlab.com/k2511/kube-secreto

go 1.16

require (
	github.com/gorilla/mux v1.8.0
	github.com/stretchr/testify v1.7.0
	k8s.io/api v0.23.3
	k8s.io/apimachinery v0.23.3
	k8s.io/client-go v0.23.3
)
